    18  atomicd0  -1.02237906995337667E+02 (Ha)  FIRE:fnrm=  1.291E-03
surface  4.80000000000000000E+01  1.55399999999999991E+01  7.95999999999999996E+00  {format: xyz, source: ribbon4_1.xyz, alpha (FIRE): 0.23068617360698, dt (FIRE): 0.4208936628435003}
 C  2.42834299534633367E+01  1.49999742569664942E+01  1.33610895881362546E+00 {velocity: [3.7448266403576788E-005, -3.6792342636696835E-006, -9.094857095973516E-006]}
 C  1.96062239113852286E+01  1.49999785746050023E+01  1.32663808953248186E+00 {velocity: [8.9755214156068746E-004, -1.0597120705781571E-006, -7.8957534690925782E-005]}
 C  2.89619056842276628E+01  1.49999746949627522E+01  1.32651024507453763E+00 {velocity: [-1.0323516941525251E-003, -2.1084742562744726E-006, -9.9446202375897422E-005]}
 C  1.51190921626837014E+01  1.50000675548269093E+01  1.16780919141619899E+00 {velocity: [1.7356553219676377E-003, 6.1891993131110726E-006, -3.0799039042545852E-004]}
 C  3.34471207519046487E+01  1.50000588924487399E+01  1.16780230638248184E+00 {velocity: [-1.9975488820011141E-003, 4.2599490499930454E-006, -3.0945411331792397E-004]}
 C  2.19525377831448161E+01  1.49999742146066612E+01  2.65134557709637031E+00 {velocity: [4.1541090603713178E-004, -2.6547796635690088E-006, 2.8825439182320176E-005]}
 C  2.66155728776978719E+01  1.49999728457137387E+01  2.65120746296027621E+00 {velocity: [-4.0162505717018532E-004, -2.9526148348545234E-006, 4.5605596543878092E-005]}
 C  1.72674663944507110E+01  1.50000021085828870E+01  2.67063457806793192E+00 {velocity: [1.4627477423432766E-003, 1.4698710202679938E-006, 6.4597630684437785E-005]}
 C  3.12988601318891604E+01  1.49999968537100035E+01  2.67078138795243047E+00 {velocity: [-1.7075591703085856E-003, 4.0778612090887973E-007, 7.2527384809111569E-005]}
 C  2.19525402385200543E+01  1.49999738427448666E+01  5.30869831806972670E+00 {velocity: [4.1496594529605226E-004, -2.616207566290402E-006, -2.7212193210177854E-005]}
 C  2.66155723257887082E+01  1.49999733018090478E+01  5.30883342332604080E+00 {velocity: [-4.0184560628599424E-004, -2.9128920189079263E-006, -4.5476934379173585E-005]}
 C  1.72674729863749263E+01  1.50000019343346587E+01  5.28936303386196638E+00 {velocity: [1.4618201905878922E-003, 1.5063163997423932E-006, -6.4488684914787127E-005]}
 C  3.12988545323372342E+01  1.49999964943280126E+01  5.28921395949418294E+00 {velocity: [-1.7072206308413804E-003, 3.0432425919744519E-007, -7.4724851888749563E-005]}
 C  2.42834299670907541E+01  1.49999742144086206E+01  6.62393852138435513E+00 {velocity: [3.7282740855442484E-005, -3.7024525429279768E-006, 1.0175931689916826E-005]}
 C  1.96062225681305655E+01  1.49999796293251677E+01  6.63338689278681315E+00 {velocity: [8.9679244002524887E-004, -8.4377582775634902E-007, 7.9730125007009542E-005]}
 C  2.89619071516231870E+01  1.49999740153390899E+01  6.63351036377913594E+00 {velocity: [-1.0320884192840931E-003, -2.1602596493299548E-006, 9.8157025938078348E-005]}
 C  1.51190561586163970E+01  1.50000675066342541E+01  6.79212101160251525E+00 {velocity: [1.7316117623497832E-003, 6.1512196944374418E-006, 3.0488872088526035E-004]}
 C  3.34471599427225925E+01  1.50000589989947528E+01  6.79212311644884981E+00 {velocity: [-1.9952931944427835E-003, 4.4017368365001703E-006, 3.0498808917056813E-004]}
 forces
C       2.17394819683575341E-06 -8.68567372652864459E-07 -1.70655194927735870E-05
C       2.50661550345924111E-04 -2.41135845199535991E-07 -5.47833597527198901E-05
C      -2.97775816485753046E-04 -4.97110860340380910E-07 -5.83294273956451101E-05
C       3.10896819126799118E-04  1.46060335621063755E-06 -2.17525623842390603E-04
C      -3.45194675011345486E-04  1.02395337701146335E-06 -2.15625084157775038E-04
C       1.13985707878769098E-04 -6.57926558169777667E-07  3.04872440582931552E-05
C      -1.27607512627060660E-04 -7.34377392655371684E-07  3.73407741149924498E-05
C       3.81408426988458227E-04  3.81084039495431962E-07  1.88126682502433307E-05
C      -4.34401416765567427E-04  1.09488789015077462E-07  1.49896302245738910E-05
C       1.13894069218911653E-04 -6.42276689628309782E-07 -3.01826486932554872E-05
C      -1.27603534549214359E-04 -7.43569978220877506E-07 -3.73010310035226667E-05
C       3.81220612567290118E-04  4.05232236861316882E-07 -1.88561062230974130E-05
C      -4.34308701385610618E-04  9.13821691393179624E-08 -1.57041784465405954E-05
C       2.15653589713212836E-06 -8.63314092322339804E-07  1.72650536776897123E-05
C       2.50467270646481666E-04 -2.27765040886360675E-07  5.49274463839538596E-05
C      -2.97630226129275144E-04 -5.07710044648156214E-07  5.79948011690256671E-05
C       3.09961793174551303E-04  1.45483635034200222E-06  2.16776665584283990E-04
C      -3.44682045733790687E-04  1.05717355664871121E-06  2.14542965954800380E-04
